Les essentiels de la data science
…
---
## Pivoter

```r
pres2017T1_communes_long <- pres2017T1_communes %>% 
  select(- contains("_ins")) %>%
  select(- contains("_exp")) %>%   
  gather(candidat, voix, `LE PEN`:CHEMINADE)

pres2017T1_communes_long
```

```
## # A tibble: 390,456 x 15
##    CodeInsee CodeDepartement Département                 Commune Inscrits
##        <chr>           <chr>       <chr>                   <chr>    <int>
##  1     01001              01         Ain L'Abergement-Clémenciat      598
##  2     01002              01         Ain   L'Abergement-de-Varey      209
##  3     01004              01         Ain       Ambérieu-en-Bugey     8586
##  4     01005              01         Ain     Ambérieux-en-Dombes     1172
##  5     01006              01         Ain                 Ambléon       99
##  6     01007              01         Ain                Ambronay     1880
##  7     01008              01         Ain                Ambutrix      581
##  8     01009              01         Ain        Andert-et-Condon      254
##  9     01010              01         Ain               Anglefort      738
## 10     01011              01         Ain                Apremont      275
## # ... with 390,446 more rows, and 10 more variables: Abstentions <int>,
## #   Votants <int>, Blancs <int>, Blancs_vot <dbl>, Nuls <int>,
## #   Nuls_vot <dbl>, Exprimés <int>, Exprimés_vot <dbl>, candidat <chr>,
## #   voix <int>
```

---
## Modifier

```r
pres2017T1_communes_long <- pres2017T1_communes_long %>% 
  mutate(ins = voix / Inscrits * 100) %>% 
  mutate(exp = voix / Exprimés * 100) %>%
  print
```

```
## # A tibble: 390,456 x 17
##    CodeInsee CodeDepartement Département                 Commune Inscrits
##        <chr>           <chr>       <chr>                   <chr>    <int>
##  1     01001              01         Ain L'Abergement-Clémenciat      598
##  2     01002              01         Ain   L'Abergement-de-Varey      209
##  3     01004              01         Ain       Ambérieu-en-Bugey     8586
##  4     01005              01         Ain     Ambérieux-en-Dombes     1172
##  5     01006              01         Ain                 Ambléon       99
##  6     01007              01         Ain                Ambronay     1880
##  7     01008              01         Ain                Ambutrix      581
##  8     01009              01         Ain        Andert-et-Condon      254
##  9     01010              01         Ain               Anglefort      738
## 10     01011              01         Ain                Apremont      275
## # ... with 390,446 more rows, and 12 more variables: Abstentions <int>,
## #   Votants <int>, Blancs <int>, Blancs_vot <dbl>, Nuls <int>,
## #   Nuls_vot <dbl>, Exprimés <int>, Exprimés_vot <dbl>, candidat <chr>,
## #   voix <int>, ins <dbl>, exp <dbl>
```

---
## Pivoter

```r
pres2017T1_communes_long %>% 
  gather(metrique, valeur, voix:exp) 
```

```
## # A tibble: 1,171,368 x 16
##    CodeInsee CodeDepartement Département                 Commune Inscrits
##        <chr>           <chr>       <chr>                   <chr>    <int>
##  1     01001              01         Ain L'Abergement-Clémenciat      598
##  2     01002              01         Ain   L'Abergement-de-Varey      209
##  3     01004              01         Ain       Ambérieu-en-Bugey     8586
##  4     01005              01         Ain     Ambérieux-en-Dombes     1172
##  5     01006              01         Ain                 Ambléon       99
##  6     01007              01         Ain                Ambronay     1880
##  7     01008              01         Ain                Ambutrix      581
##  8     01009              01         Ain        Andert-et-Condon      254
##  9     01010              01         Ain               Anglefort      738
## 10     01011              01         Ain                Apremont      275
## # ... with 1,171,358 more rows, and 11 more variables: Abstentions <int>,
## #   Votants <int>, Blancs <int>, Blancs_vot <dbl>, Nuls <int>,
## #   Nuls_vot <dbl>, Exprimés <int>, Exprimés_vot <dbl>, candidat <chr>,
## #   metrique <chr>, valeur <dbl>
```

---
## Pivoter

```r
pres2017T1_communes_long %>% 
  gather(metrique, valeur, voix:exp) %>% 
  unite(variable, candidat, metrique, sep = "_")
```

```
## # A tibble: 1,171,368 x 15
##    CodeInsee CodeDepartement Département                 Commune Inscrits
##  *     <chr>           <chr>       <chr>                   <chr>    <int>
##  1     01001              01         Ain L'Abergement-Clémenciat      598
##  2     01002              01         Ain   L'Abergement-de-Varey      209
##  3     01004              01         Ain       Ambérieu-en-Bugey     8586
##  4     01005              01         Ain     Ambérieux-en-Dombes     1172
##  5     01006              01         Ain                 Ambléon       99
##  6     01007              01         Ain                Ambronay     1880
##  7     01008              01         Ain                Ambutrix      581
##  8     01009              01         Ain        Andert-et-Condon      254
##  9     01010              01         Ain               Anglefort      738
## 10     01011              01         Ain                Apremont      275
## # ... with 1,171,358 more rows, and 10 more variables: Abstentions <int>,
## #   Votants <int>, Blancs <int>, Blancs_vot <dbl>, Nuls <int>,
## #   Nuls_vot <dbl>, Exprimés <int>, Exprimés_vot <dbl>, variable <chr>,
## #   valeur <dbl>
```

---
## Pivoter

```r
pres2017T1_communes_long %>% 
  gather(metrique, valeur, voix:exp) %>% 
  unite(variable, candidat, metrique, sep = "_") %>% 
  spread(variable, valeur)
```

```
## # A tibble: 35,496 x 46
##    CodeInsee CodeDepartement Département                 Commune Inscrits
##  *     <chr>           <chr>       <chr>                   <chr>    <int>
##  1     01001              01         Ain L'Abergement-Clémenciat      598
##  2     01002              01         Ain   L'Abergement-de-Varey      209
##  3     01004              01         Ain       Ambérieu-en-Bugey     8586
##  4     01005              01         Ain     Ambérieux-en-Dombes     1172
##  5     01006              01         Ain                 Ambléon       99
##  6     01007              01         Ain                Ambronay     1880
##  7     01008              01         Ain                Ambutrix      581
##  8     01009              01         Ain        Andert-et-Condon      254
##  9     01010              01         Ain               Anglefort      738
## 10     01011              01         Ain                Apremont      275
## # ... with 35,486 more rows, and 41 more variables: Abstentions <int>,
## #   Votants <int>, Blancs <int>, Blancs_vot <dbl>, Nuls <int>,
## #   Nuls_vot <dbl>, Exprimés <int>, Exprimés_vot <dbl>, ARTHAUD_exp <dbl>,
## #   ARTHAUD_ins <dbl>, ARTHAUD_voix <dbl>, ASSELINEAU_exp <dbl>,
## #   ASSELINEAU_ins <dbl>, ASSELINEAU_voix <dbl>, CHEMINADE_exp <dbl>,
## #   CHEMINADE_ins <dbl>, CHEMINADE_voix <dbl>, `DUPONT-AIGNAN_exp` <dbl>,
## #   `DUPONT-AIGNAN_ins` <dbl>, `DUPONT-AIGNAN_voix` <dbl>,
## #   FILLON_exp <dbl>, FILLON_ins <dbl>, FILLON_voix <dbl>,
## #   HAMON_exp <dbl>, HAMON_ins <dbl>, HAMON_voix <dbl>,
…
